Posisi,Karakter,Status
Scanner Production,"R,I,C,H",0
Scanner Product Engineering,R,0
Scanner Part Engineering,I,0
Scanner Qa,"C,H",0
Ik Engineering,"R,I",0
Ik Production,"C,H",0
Machinery Engineering,R,0
Ik Molding,"R,I",0
Ik Qa,"R,I,C,H",0
Device Engineering,R,0
Device Production,I,0
Device Maintenance,"C,H",0
Device Qa,"R,I",0
Factory Facility,"C,H",0
